root@vanisond-cmp2:~# docker exec -it nova_libvirt bash -i
(nova-libvirt)[root@vanisond-cmp2 /]# virsh list
 Id   Name                State
-----------------------------------
 1    instance-00000002   running

(nova-libvirt)[root@vanisond-cmp2 /]# 

root@vanisond-cmp2:~# ip link show
1: lo: <LOOPBACK,UP,LOWER_UP> mtu 65536 qdisc noqueue state UNKNOWN mode DEFAULT group default qlen 1000
    link/loopback 00:00:00:00:00:00 brd 00:00:00:00:00:00
2: ens3: <BROADCAST,MULTICAST,UP,LOWER_UP> mtu 1500 qdisc fq_codel state UP mode DEFAULT group default qlen 1000
    link/ether 02:00:0a:26:06:95 brd ff:ff:ff:ff:ff:ff
3: docker0: <NO-CARRIER,BROADCAST,MULTICAST,UP> mtu 1500 qdisc noqueue state DOWN mode DEFAULT group default 
    link/ether 02:42:34:2f:2a:01 brd ff:ff:ff:ff:ff:ff
4: ovs-system: <BROADCAST,MULTICAST> mtu 1500 qdisc noop state DOWN mode DEFAULT group default qlen 1000
    link/ether a2:16:58:5e:1f:53 brd ff:ff:ff:ff:ff:ff
5: br-int: <BROADCAST,MULTICAST> mtu 1450 qdisc noop state DOWN mode DEFAULT group default qlen 1000
    link/ether 16:c7:eb:c9:8c:48 brd ff:ff:ff:ff:ff:ff
6: br-tun: <BROADCAST,MULTICAST> mtu 1500 qdisc noop state DOWN mode DEFAULT group default qlen 1000
    link/ether 66:59:85:c0:71:4f brd ff:ff:ff:ff:ff:ff
7: qbr2720ffb1-c6: <BROADCAST,MULTICAST,UP,LOWER_UP> mtu 1450 qdisc noqueue state UP mode DEFAULT group default qlen 1000
    link/ether d6:b6:22:9e:b6:ce brd ff:ff:ff:ff:ff:ff
8: qvo2720ffb1-c6@qvb2720ffb1-c6: <BROADCAST,MULTICAST,UP,LOWER_UP> mtu 1450 qdisc noqueue master ovs-system state UP mode DEFAULT group default qlen 1000
    link/ether d6:0e:81:5d:b8:5f brd ff:ff:ff:ff:ff:ff
9: qvb2720ffb1-c6@qvo2720ffb1-c6: <BROADCAST,MULTICAST,UP,LOWER_UP> mtu 1450 qdisc noqueue master qbr2720ffb1-c6 state UP mode DEFAULT group default qlen 1000
    link/ether d6:b6:22:9e:b6:ce brd ff:ff:ff:ff:ff:ff
10: tap2720ffb1-c6: <BROADCAST,MULTICAST,UP,LOWER_UP> mtu 1450 qdisc fq_codel master qbr2720ffb1-c6 state UNKNOWN mode DEFAULT group default qlen 1000
    link/ether fe:16:3e:8b:0e:eb brd ff:ff:ff:ff:ff:ff
11: vxlan_sys_4789: <BROADCAST,MULTICAST,UP,LOWER_UP> mtu 65000 qdisc noqueue master ovs-system state UNKNOWN mode DEFAULT group default qlen 1000
    link/ether 5a:54:02:e7:e5:10 brd ff:ff:ff:ff:ff:ff

root@vanisond-cmp2:~# tcpdump -vv -i tap2720ffb1-c6
tcpdump: listening on tap2720ffb1-c6, link-type EN10MB (Ethernet), capture size 262144 bytes

19:58:42.441301 IP (tos 0x0, ttl 64, id 53821, offset 0, flags [DF], proto ICMP (1), length 84)
    10.0.0.89 > 10.0.0.149: ICMP echo request, id 49921, seq 0, length 64
19:58:42.453659 IP (tos 0x0, ttl 64, id 28268, offset 0, flags [none], proto ICMP (1), length 84)
    10.0.0.149 > 10.0.0.89: ICMP echo reply, id 49921, seq 0, length 64
19:58:43.441739 IP (tos 0x0, ttl 64, id 53877, offset 0, flags [DF], proto ICMP (1), length 84)
    10.0.0.89 > 10.0.0.149: ICMP echo request, id 49921, seq 1, length 64
19:58:43.442836 IP (tos 0x0, ttl 64, id 28473, offset 0, flags [none], proto ICMP (1), length 84)
    10.0.0.149 > 10.0.0.89: ICMP echo reply, id 49921, seq 1, length 64
19:58:44.443549 IP (tos 0x0, ttl 64, id 54072, offset 0, flags [DF], proto ICMP (1), length 84)
    10.0.0.89 > 10.0.0.149: ICMP echo request, id 49921, seq 2, length 64
19:58:44.444535 IP (tos 0x0, ttl 64, id 28693, offset 0, flags [none], proto ICMP (1), length 84)
    10.0.0.149 > 10.0.0.89: ICMP echo reply, id 49921, seq 2, length 64
19:58:45.444545 IP (tos 0x0, ttl 64, id 54107, offset 0, flags [DF], proto ICMP (1), length 84)
    10.0.0.89 > 10.0.0.149: ICMP echo request, id 49921, seq 3, length 64
19:58:45.445298 IP (tos 0x0, ttl 64, id 28937, offset 0, flags [none], proto ICMP (1), length 84)
    10.0.0.149 > 10.0.0.89: ICMP echo reply, id 49921, seq 3, length 64
19:58:47.586730 ARP, Ethernet (len 6), IPv4 (len 4), Request who-has 10.0.0.89 tell 10.0.0.149, length 28
19:58:47.590569 ARP, Ethernet (len 6), IPv4 (len 4), Reply 10.0.0.89 is-at fa:16:3e:b3:ca:53 (oui Unknown), length 28

